EESchema Schematic File Version 2
LIBS:power
LIBS:device
LIBS:transistors
LIBS:conn
LIBS:linear
LIBS:regul
LIBS:74xx
LIBS:cmos4000
LIBS:adc-dac
LIBS:memory
LIBS:xilinx
LIBS:microcontrollers
LIBS:dsp
LIBS:microchip
LIBS:analog_switches
LIBS:motorola
LIBS:texas
LIBS:intel
LIBS:audio
LIBS:interface
LIBS:digital-audio
LIBS:philips
LIBS:display
LIBS:cypress
LIBS:siliconi
LIBS:opto
LIBS:atmel
LIBS:contrib
LIBS:valves
LIBS:mylib
LIBS:HG_74xx
LIBS:HG_BMS
LIBS:HG_device
LIBS:HG_regulators
LIBS:V.1 LTC4020 Charger-cache
EELAYER 25 0
EELAYER END
$Descr A4 11693 8268
encoding utf-8
Sheet 1 1
Title ""
Date ""
Rev ""
Comp ""
Comment1 ""
Comment2 ""
Comment3 ""
Comment4 ""
$EndDescr
$Comp
L GND #PWR01
U 1 1 5AA954BD
P 6150 6200
F 0 "#PWR01" H 6150 5950 50  0001 C CNN
F 1 "GND" H 6150 6050 50  0000 C CNN
F 2 "" H 6150 6200 50  0001 C CNN
F 3 "" H 6150 6200 50  0001 C CNN
	1    6150 6200
	1    0    0    -1  
$EndComp
$Comp
L GND #PWR02
U 1 1 5AA954F1
P 6900 4050
F 0 "#PWR02" H 6900 3800 50  0001 C CNN
F 1 "GND" H 6900 3900 50  0001 C CNN
F 2 "" H 6900 4050 50  0001 C CNN
F 3 "" H 6900 4050 50  0001 C CNN
	1    6900 4050
	1    0    0    -1  
$EndComp
$Comp
L GND #PWR03
U 1 1 5AA95521
P 5400 4150
F 0 "#PWR03" H 5400 3900 50  0001 C CNN
F 1 "GND" H 5400 4000 50  0001 C CNN
F 2 "" H 5400 4150 50  0001 C CNN
F 3 "" H 5400 4150 50  0001 C CNN
	1    5400 4150
	1    0    0    -1  
$EndComp
$Comp
L GND #PWR04
U 1 1 5AA9556F
P 5400 5300
F 0 "#PWR04" H 5400 5050 50  0001 C CNN
F 1 "GND" H 5400 5150 50  0001 C CNN
F 2 "" H 5400 5300 50  0001 C CNN
F 3 "" H 5400 5300 50  0001 C CNN
	1    5400 5300
	1    0    0    -1  
$EndComp
$Comp
L GND #PWR05
U 1 1 5AA95585
P 5050 5800
F 0 "#PWR05" H 5050 5550 50  0001 C CNN
F 1 "GND" H 5050 5650 50  0001 C CNN
F 2 "" H 5050 5800 50  0001 C CNN
F 3 "" H 5050 5800 50  0001 C CNN
	1    5050 5800
	1    0    0    -1  
$EndComp
$Comp
L GND #PWR06
U 1 1 5AA955AC
P 7250 4700
F 0 "#PWR06" H 7250 4450 50  0001 C CNN
F 1 "GND" H 7250 4550 50  0001 C CNN
F 2 "" H 7250 4700 50  0001 C CNN
F 3 "" H 7250 4700 50  0001 C CNN
	1    7250 4700
	1    0    0    -1  
$EndComp
$Comp
L C C4
U 1 1 5AA955E1
P 5250 5800
F 0 "C4" H 5275 5900 39  0000 L CNN
F 1 "0.22uF" V 5200 5600 39  0000 L CNN
F 2 "Capacitors_SMD:C_0603_HandSoldering" H 5288 5650 50  0001 C CNN
F 3 "" H 5250 5800 50  0001 C CNN
F 4 "GRM188R71C224KA01J" H 5250 5800 60  0001 C CNN "partno"
	1    5250 5800
	0    1    1    0   
$EndComp
$Comp
L C C10
U 1 1 5AA9566A
P 7050 4700
F 0 "C10" V 7100 4750 50  0000 L CNN
F 1 "100pF" V 7000 4750 39  0000 L BNN
F 2 "Capacitors_SMD:C_0603_HandSoldering" H 7088 4550 50  0001 C CNN
F 3 "" H 7050 4700 50  0001 C CNN
F 4 "06035A101KAT2A" H 7050 4700 60  0001 C CNN "partno"
	1    7050 4700
	0    1    1    0   
$EndComp
$Comp
L GND #PWR07
U 1 1 5AA95BB4
P 4950 4900
F 0 "#PWR07" H 4950 4650 50  0001 C CNN
F 1 "GND" H 4950 4750 50  0001 C CNN
F 2 "" H 4950 4900 50  0001 C CNN
F 3 "" H 4950 4900 50  0001 C CNN
	1    4950 4900
	1    0    0    -1  
$EndComp
$Comp
L R RT1
U 1 1 5AA95BCE
P 5150 4900
F 0 "RT1" V 5230 4900 50  0000 C CNN
F 1 "100k" V 5150 4900 50  0000 C CNN
F 2 "Resistors_SMD:R_0603_HandSoldering" V 5080 4900 50  0001 C CNN
F 3 "" H 5150 4900 50  0001 C CNN
F 4 "CRCW0603100KFKEA" H 5150 4900 60  0001 C CNN "partno"
	1    5150 4900
	0    1    1    0   
$EndComp
$Comp
L LED D2
U 1 1 5AA95CCC
P 5150 5450
F 0 "D2" H 5150 5350 50  0000 C CNN
F 1 "LED_Green" H 5150 5350 50  0001 C CNN
F 2 "LEDs:LED_0603_HandSoldering" H 5150 5450 50  0001 C CNN
F 3 "" H 5150 5450 50  0001 C CNN
F 4 "LTST-C190KGKT" H 5150 5450 60  0001 C CNN "partno"
	1    5150 5450
	-1   0    0    1   
$EndComp
$Comp
L LED D3
U 1 1 5AA95D0F
P 5150 5600
F 0 "D3" H 5150 5700 50  0000 C CNN
F 1 "LED_Red" H 5150 5500 50  0001 C CNN
F 2 "LEDs:LED_0603_HandSoldering" H 5150 5600 50  0001 C CNN
F 3 "" H 5150 5600 50  0001 C CNN
F 4 "HSMH-C191" H 5150 5600 60  0001 C CNN "partno"
	1    5150 5600
	-1   0    0    1   
$EndComp
$Comp
L R R5
U 1 1 5AA9600B
P 4800 5450
F 0 "R5" V 4700 5450 50  0000 C CNN
F 1 "2.7k" V 4800 5450 50  0000 C CNN
F 2 "Resistors_SMD:R_0603_HandSoldering" V 4730 5450 50  0001 C CNN
F 3 "" H 4800 5450 50  0001 C CNN
F 4 "RC0603FR-072K7L" H 4800 5450 60  0001 C CNN "partno"
	1    4800 5450
	0    1    1    0   
$EndComp
$Comp
L R R6
U 1 1 5AA9603E
P 4800 5600
F 0 "R6" V 4880 5600 50  0000 C CNN
F 1 "2.7k" V 4800 5600 50  0000 C CNN
F 2 "Resistors_SMD:R_0603_HandSoldering" V 4730 5600 50  0001 C CNN
F 3 "" H 4800 5600 50  0001 C CNN
F 4 "RC0603FR-072K7L" H 4800 5600 60  0001 C CNN "partno"
	1    4800 5600
	0    1    1    0   
$EndComp
$Comp
L C C6
U 1 1 5AA9633F
P 5350 4450
F 0 "C6" H 5400 4350 50  0000 L CNN
F 1 "0.47uF" H 5400 4550 39  0000 L CNN
F 2 "Capacitors_SMD:C_0603_HandSoldering" H 5388 4300 50  0001 C CNN
F 3 "" H 5350 4450 50  0001 C CNN
F 4 "GCM188R71E474KA64D" H 5350 4450 60  0001 C CNN "partno"
	1    5350 4450
	1    0    0    -1  
$EndComp
$Comp
L C C5
U 1 1 5AA96767
P 5350 3850
F 0 "C5" H 5400 3750 50  0000 L CNN
F 1 "1uF" H 5400 3950 39  0000 L CNN
F 2 "Capacitors_SMD:C_0603_HandSoldering" H 5388 3700 50  0001 C CNN
F 3 "" H 5350 3850 50  0001 C CNN
F 4 "MC0603X105K160CT" H 5350 3850 60  0001 C CNN "partno"
	1    5350 3850
	1    0    0    -1  
$EndComp
$Comp
L R R15
U 1 1 5AA97104
P 8200 3500
F 0 "R15" V 8280 3500 50  0000 C CNN
F 1 "60.4k" V 8200 3500 50  0000 C CNN
F 2 "Resistors_SMD:R_0603_HandSoldering" V 8130 3500 50  0001 C CNN
F 3 "" H 8200 3500 50  0001 C CNN
F 4 "CRCW060360K4FKEA" H 8200 3500 60  0001 C CNN "partno"
	1    8200 3500
	0    1    1    0   
$EndComp
$Comp
L C C17
U 1 1 5AA97139
P 8500 3500
F 0 "C17" V 8550 3550 50  0000 L CNN
F 1 "10nF" V 8450 3550 39  0000 L CNN
F 2 "Capacitors_SMD:C_0603_HandSoldering" H 8538 3350 50  0001 C CNN
F 3 "" H 8500 3500 50  0001 C CNN
F 4 "GCM188R71H103KA37D" H 8500 3500 60  0001 C CNN "partno"
	1    8500 3500
	0    1    1    0   
$EndComp
$Comp
L GND #PWR08
U 1 1 5AA9717E
P 8800 3500
F 0 "#PWR08" H 8800 3250 50  0001 C CNN
F 1 "GND" H 8800 3350 50  0001 C CNN
F 2 "" H 8800 3500 50  0001 C CNN
F 3 "" H 8800 3500 50  0001 C CNN
	1    8800 3500
	1    0    0    -1  
$EndComp
$Comp
L R R14
U 1 1 5AA9725F
P 8200 3000
F 0 "R14" V 8100 3000 50  0000 C CNN
F 1 "47k" V 8200 3000 50  0000 C CNN
F 2 "Resistors_SMD:R_0603_HandSoldering" V 8130 3000 50  0001 C CNN
F 3 "" H 8200 3000 50  0001 C CNN
F 4 "MC0063W0603147K" H 8200 3000 60  0001 C CNN "partno"
	1    8200 3000
	0    1    1    0   
$EndComp
$Comp
L C C16
U 1 1 5AA972A0
P 8500 3000
F 0 "C16" V 8550 3050 50  0000 L CNN
F 1 "680pF" V 8450 3050 39  0000 L CNN
F 2 "Capacitors_SMD:C_0603_HandSoldering" H 8538 2850 50  0001 C CNN
F 3 "" H 8500 3000 50  0001 C CNN
F 4 "GRM1885C2A681JA01D" H 8500 3000 60  0001 C CNN "partno"
	1    8500 3000
	0    1    1    0   
$EndComp
$Comp
L C C14
U 1 1 5AA972E1
P 8350 2800
F 0 "C14" V 8400 2850 50  0000 L CNN
F 1 "OPT_Cvc" V 8300 2850 39  0000 L CNN
F 2 "Capacitors_SMD:C_0603_HandSoldering" H 8388 2650 50  0001 C CNN
F 3 "" H 8350 2800 50  0001 C CNN
	1    8350 2800
	0    1    1    0   
$EndComp
$Comp
L GND #PWR09
U 1 1 5AA97340
P 8750 3000
F 0 "#PWR09" H 8750 2750 50  0001 C CNN
F 1 "GND" H 8750 2850 50  0001 C CNN
F 2 "" H 8750 3000 50  0001 C CNN
F 3 "" H 8750 3000 50  0001 C CNN
	1    8750 3000
	1    0    0    -1  
$EndComp
$Comp
L D_Schottky D6
U 1 1 5AA97B11
P 7000 3150
F 0 "D6" H 7000 3250 50  0000 C CNN
F 1 "1A" V 7100 3100 39  0000 C CNN
F 2 "HG_Devices:SOD-123W" H 7000 3150 50  0001 C CNN
F 3 "" H 7000 3150 50  0001 C CNN
F 4 "PMEG10010ELRX" H 7000 3150 60  0001 C CNN "partno"
	1    7000 3150
	0    -1   -1   0   
$EndComp
$Comp
L C C11
U 1 1 5AA97CD9
P 7150 3650
F 0 "C11" H 7150 3550 50  0000 L CNN
F 1 "1uF" H 7150 3750 39  0000 L CNN
F 2 "Capacitors_SMD:C_0603_HandSoldering" H 7188 3500 50  0001 C CNN
F 3 "" H 7150 3650 50  0001 C CNN
F 4 "MC0603X105K160CT" H 7150 3650 60  0001 C CNN "partno"
	1    7150 3650
	1    0    0    -1  
$EndComp
$Comp
L R R9
U 1 1 5AA969F0
P 7500 5750
F 0 "R9" V 7580 5750 50  0000 C CNN
F 1 "24.9k 0.1%" V 7500 5750 50  0000 C CNN
F 2 "Resistors_SMD:R_0603_HandSoldering" V 7430 5750 50  0001 C CNN
F 3 "" H 7500 5750 50  0001 C CNN
F 4 "RT0603BRD0724K9L" H 7500 5750 60  0001 C CNN "partno"
	1    7500 5750
	0    1    1    0   
$EndComp
$Comp
L R R12
U 1 1 5AA96C40
P 7850 5750
F 0 "R12" V 7930 5750 50  0000 C CNN
F 1 "226k 0.1%" V 7850 5750 50  0000 C CNN
F 2 "Resistors_SMD:R_0603_HandSoldering" V 7780 5750 50  0001 C CNN
F 3 "" H 7850 5750 50  0001 C CNN
F 4 "ERA-3AEB2263V" H 7850 5750 60  0001 C CNN "partno"
	1    7850 5750
	0    1    1    0   
$EndComp
$Comp
L R R13
U 1 1 5AA97176
P 8100 4450
F 0 "R13" V 8180 4450 50  0000 C CNN
F 1 "20" V 8100 4450 50  0000 C CNN
F 2 "Resistors_SMD:R_0603_HandSoldering" V 8030 4450 50  0001 C CNN
F 3 "" H 8100 4450 50  0001 C CNN
F 4 "CRCW060320R0FKEAC" H 8100 4450 60  0001 C CNN "partno"
	1    8100 4450
	-1   0    0    1   
$EndComp
$Comp
L C C13
U 1 1 5AA97AC2
P 8100 4800
F 0 "C13" H 8000 4900 50  0000 L CNN
F 1 "4.7uF" H 7900 4700 39  0000 L CNN
F 2 "Capacitors_SMD:C_0603_HandSoldering" H 8138 4650 50  0001 C CNN
F 3 "" H 8100 4800 50  0001 C CNN
F 4 "C1608X5R1C475K080AC" H 8100 4800 60  0001 C CNN "partno"
	1    8100 4800
	-1   0    0    1   
$EndComp
$Comp
L R R16
U 1 1 5AA988AE
P 8500 4300
F 0 "R16" V 8580 4300 50  0000 C CNN
F 1 "100" V 8500 4300 50  0000 C CNN
F 2 "Resistors_SMD:R_0603_HandSoldering" V 8430 4300 50  0001 C CNN
F 3 "" H 8500 4300 50  0001 C CNN
F 4 "WR06X1000FTL" H 8500 4300 60  0001 C CNN "partno"
	1    8500 4300
	0    1    1    0   
$EndComp
$Comp
L R R17
U 1 1 5AA988F7
P 8550 4950
F 0 "R17" V 8630 4950 50  0000 C CNN
F 1 "100" V 8550 4950 50  0000 C CNN
F 2 "Resistors_SMD:R_0603_HandSoldering" V 8480 4950 50  0001 C CNN
F 3 "" H 8550 4950 50  0001 C CNN
F 4 "WR06X1000FTL" H 8550 4950 60  0001 C CNN "partno"
	1    8550 4950
	0    1    1    0   
$EndComp
$Comp
L LTC4020 U1
U 1 1 5AA9541D
P 6150 4500
F 0 "U1" H 6150 3750 60  0000 C CNN
F 1 "LTC4020" H 6150 4850 60  0000 C CNN
F 2 "Housings_DFN_QFN:QFN-38-1EP_5x7mm_Pitch0.5mm" H 6150 4500 60  0001 C CNN
F 3 "" H 6150 4500 60  0001 C CNN
F 4 "LTC4020EUHF#PBF" H 6150 4500 60  0001 C CNN "partno"
	1    6150 4500
	1    0    0    -1  
$EndComp
$Comp
L C C18
U 1 1 5AA9D84C
P 8750 5100
F 0 "C18" H 8750 5000 50  0000 L CNN
F 1 "OPT_Cbgate" H 8750 5200 39  0000 L CNN
F 2 "Capacitors_SMD:C_0603_HandSoldering" H 8788 4950 50  0001 C CNN
F 3 "" H 8750 5100 50  0001 C CNN
	1    8750 5100
	1    0    0    -1  
$EndComp
$Comp
L R R1
U 1 1 5AAA3A42
P 3600 4950
F 0 "R1" V 3500 4950 50  0000 C CNN
F 1 "100k" V 3600 4950 50  0000 C CNN
F 2 "Resistors_SMD:R_0603_HandSoldering" V 3530 4950 50  0001 C CNN
F 3 "" H 3600 4950 50  0001 C CNN
F 4 "CRCW0603100KFKEA" H 3600 4950 60  0001 C CNN "partno"
	1    3600 4950
	1    0    0    -1  
$EndComp
$Comp
L R R2
U 1 1 5AAA3A95
P 3600 5250
F 0 "R2" V 3500 5250 50  0000 C CNN
F 1 "5.1k" V 3600 5250 50  0000 C CNN
F 2 "Resistors_SMD:R_0603_HandSoldering" V 3530 5250 50  0001 C CNN
F 3 "" H 3600 5250 50  0001 C CNN
F 4 "CRCW06035K10FKEA" H 3600 5250 60  0001 C CNN "partno"
	1    3600 5250
	1    0    0    -1  
$EndComp
$Comp
L GND #PWR010
U 1 1 5AAA4340
P 3600 5400
F 0 "#PWR010" H 3600 5150 50  0001 C CNN
F 1 "GND" H 3600 5250 50  0001 C CNN
F 2 "" H 3600 5400 50  0001 C CNN
F 3 "" H 3600 5400 50  0001 C CNN
	1    3600 5400
	1    0    0    -1  
$EndComp
$Comp
L C C7
U 1 1 5AAA62E4
P 5400 3100
F 0 "C7" H 5450 3000 50  0000 L CNN
F 1 "2.2uF" H 5450 3200 39  0000 L CNN
F 2 "Capacitors_SMD:C_0603_HandSoldering" H 5438 2950 50  0001 C CNN
F 3 "" H 5400 3100 50  0001 C CNN
F 4 "C1608X5R1C225M080AB" H 5400 3100 60  0001 C CNN "partno"
	1    5400 3100
	1    0    0    -1  
$EndComp
$Comp
L D_Schottky D1
U 1 1 5AAA6C4E
P 4950 3150
F 0 "D1" H 4950 3250 50  0000 C CNN
F 1 "1A" V 5050 3100 50  0000 C CNN
F 2 "HG_Devices:SOD-123W" H 4950 3150 50  0001 C CNN
F 3 "" H 4950 3150 50  0001 C CNN
F 4 "PMEG10010ELRX" H 4950 3150 60  0001 C CNN "partno"
	1    4950 3150
	0    -1   -1   0   
$EndComp
$Comp
L R R18
U 1 1 5AAA8C8B
P 9150 4600
F 0 "R18" V 9230 4600 50  0000 C CNN
F 1 "5m 1%" V 9150 4600 50  0000 C CNN
F 2 "Resistors_SMD:R_2512_HandSoldering" V 9080 4600 50  0001 C CNN
F 3 "" H 9150 4600 50  0001 C CNN
F 4 "CRE2512-FZ-R005E-3" H 9150 4600 60  0001 C CNN "partno"
	1    9150 4600
	1    0    0    -1  
$EndComp
Text Notes 550  1200 0    60   ~ 0
Adjustable Value\nR_rt=100k ohms\nR_cs=0.005 ohms\nR_senseA=2.5m ohms\nR_senseB=2.5m ohms\nC_senseB=0.4uF\nR_ntc=10k
$Comp
L R R7
U 1 1 5AAA839C
P 5350 2500
F 0 "R7" V 5430 2500 50  0000 C CNN
F 1 "2.5m" V 5350 2500 50  0000 C CNN
F 2 "Resistors_SMD:R_2512" V 5280 2500 50  0001 C CNN
F 3 "" H 5350 2500 50  0001 C CNN
F 4 "TLR3A20KR0025FTDG" H 5350 2500 60  0001 C CNN "partno"
	1    5350 2500
	1    0    0    -1  
$EndComp
Text Notes 5100 2500 0    60   ~ 0
RsB\n2W
$Comp
L L L1
U 1 1 5AAADB68
P 5850 1800
F 0 "L1" V 5800 1800 50  0000 C CNN
F 1 "2.52uH" V 5925 1800 50  0000 C CNN
F 2 "HG_Devices:L_IHLP" H 5850 1800 50  0001 C CNN
F 3 "" H 5850 1800 50  0001 C CNN
F 4 "IHLP5050FDER3R3M01" H 5850 1800 60  0001 C CNN "partno"
	1    5850 1800
	0    -1   -1   0   
$EndComp
$Comp
L R R8
U 1 1 5AAAE89B
P 5400 1100
F 0 "R8" V 5480 1100 50  0000 C CNN
F 1 "2.5m" V 5400 1100 50  0000 C CNN
F 2 "Resistors_SMD:R_2512" V 5330 1100 50  0001 C CNN
F 3 "" H 5400 1100 50  0001 C CNN
F 4 "TLR3A20KR0025FTDG" H 5400 1100 60  0001 C CNN "partno"
	1    5400 1100
	1    0    0    -1  
$EndComp
Text Notes 5150 1150 0    60   ~ 0
RsA\n2W
$Comp
L C C2
U 1 1 5AAB0612
P 3250 1100
F 0 "C2" H 3275 1200 50  0000 L CNN
F 1 "0.1uF" H 3275 1000 50  0000 L CNN
F 2 "Capacitors_SMD:C_0603_HandSoldering" H 3288 950 50  0001 C CNN
F 3 "" H 3250 1100 50  0001 C CNN
F 4 "MC0603B104K500CT" H 3250 1100 60  0001 C CNN "partno"
	1    3250 1100
	1    0    0    -1  
$EndComp
$Comp
L CP1 C1
U 1 1 5AAB06F8
P 2950 1100
F 0 "C1" H 2975 1200 50  0000 L CNN
F 1 "220uF" H 2975 1000 50  0000 L CNN
F 2 "Capacitors_SMD:CP_Elec_10x10" H 2950 1100 50  0001 C CNN
F 3 "" H 2950 1100 50  0001 C CNN
F 4 "UUD1H221MNL1GS" H 2950 1100 60  0001 C CNN "partno"
	1    2950 1100
	1    0    0    -1  
$EndComp
$Comp
L D_Schottky D5
U 1 1 5AAB13CB
P 6650 1650
F 0 "D5" H 6650 1750 50  0000 C CNN
F 1 "Inst 15A" H 6650 1550 50  0000 C CNN
F 2 "HG_Devices:SOD-123W" H 6650 1650 50  0001 C CNN
F 3 "" H 6650 1650 50  0001 C CNN
F 4 "PMEG10010ELRX" H 6650 1650 60  0001 C CNN "partno"
	1    6650 1650
	0    1    1    0   
$EndComp
$Comp
L CP1 C19
U 1 1 5AAB6F00
P 9950 1500
F 0 "C19" H 9975 1600 50  0000 L CNN
F 1 "220uF" H 9975 1400 50  0000 L CNN
F 2 "Capacitors_SMD:CP_Elec_10x10" H 9950 1500 50  0001 C CNN
F 3 "" H 9950 1500 50  0001 C CNN
F 4 "UUD1H221MNL1GS" H 9950 1500 60  0001 C CNN "partno"
	1    9950 1500
	1    0    0    -1  
$EndComp
Text Notes 4750 4550 0    60   ~ 0
CsB (aprox \n0.4uF)
Text Notes 2600 1700 0    60   ~ 0
C in 220+0.1 uF\n(>=158uF)
Text Notes 10300 1700 0    60   ~ 0
C out 220uF\n(>=200uF) 
Text Notes 9400 5600 0    60   ~ 0
6 cell Lipo
$Comp
L C C12
U 1 1 5ABA1FCF
P 7450 4600
F 0 "C12" V 7500 4650 50  0000 L CNN
F 1 "0.22uF" V 7400 4700 50  0000 L CNN
F 2 "Capacitors_SMD:C_0603_HandSoldering" H 7488 4450 50  0001 C CNN
F 3 "" H 7450 4600 50  0001 C CNN
F 4 "GRM188R71C224KA01J" H 7450 4600 60  0001 C CNN "partno"
	1    7450 4600
	0    1    1    0   
$EndComp
$Comp
L GND #PWR011
U 1 1 5ABA3D2A
P 7650 4600
F 0 "#PWR011" H 7650 4350 50  0001 C CNN
F 1 "GND" H 7650 4450 50  0000 C CNN
F 2 "" H 7650 4600 50  0001 C CNN
F 3 "" H 7650 4600 50  0001 C CNN
	1    7650 4600
	1    0    0    -1  
$EndComp
Text Notes 2600 5100 0    60   ~ 0
OPT\nIf SHDN func \nis not desired\nremove R2
$Comp
L R R3
U 1 1 5ACC1280
P 3850 5050
F 0 "R3" V 3930 5050 50  0000 C CNN
F 1 "100k" V 3850 5050 50  0000 C CNN
F 2 "Resistors_SMD:R_0603_HandSoldering" V 3780 5050 50  0001 C CNN
F 3 "" H 3850 5050 50  0001 C CNN
F 4 "CRCW0603100KFKEA" H 3850 5050 60  0001 C CNN "partno"
	1    3850 5050
	1    0    0    -1  
$EndComp
$Comp
L R R4
U 1 1 5ACC1546
P 3850 5350
F 0 "R4" V 3930 5350 50  0000 C CNN
F 1 "10.5k" V 3850 5350 50  0000 C CNN
F 2 "Resistors_SMD:R_0603_HandSoldering" V 3780 5350 50  0001 C CNN
F 3 "" H 3850 5350 50  0001 C CNN
F 4 "CRCW060310K5FKEA" H 3850 5350 60  0001 C CNN "partno"
	1    3850 5350
	1    0    0    -1  
$EndComp
$Comp
L GND #PWR012
U 1 1 5ACC15CB
P 3850 5500
F 0 "#PWR012" H 3850 5250 50  0001 C CNN
F 1 "GND" H 3850 5350 50  0000 C CNN
F 2 "" H 3850 5500 50  0001 C CNN
F 3 "" H 3850 5500 50  0001 C CNN
	1    3850 5500
	1    0    0    -1  
$EndComp
$Comp
L C C8
U 1 1 5ACC1D95
P 5500 6100
F 0 "C8" H 5525 6200 50  0000 L CNN
F 1 "0.22uF" H 5525 6000 50  0000 L CNN
F 2 "Capacitors_SMD:C_0603_HandSoldering" H 5538 5950 50  0001 C CNN
F 3 "" H 5500 6100 50  0001 C CNN
F 4 "GRM188R71C224KA01J" H 5500 6100 60  0001 C CNN "partno"
	1    5500 6100
	1    0    0    -1  
$EndComp
$Comp
L GND #PWR013
U 1 1 5ACC1F2F
P 5500 6250
F 0 "#PWR013" H 5500 6000 50  0001 C CNN
F 1 "GND" H 5500 6100 50  0000 C CNN
F 2 "" H 5500 6250 50  0001 C CNN
F 3 "" H 5500 6250 50  0001 C CNN
	1    5500 6250
	1    0    0    -1  
$EndComp
$Comp
L Thermistor TH1
U 1 1 5ACC282F
P 7850 6100
F 0 "TH1" V 7950 6150 50  0000 C CNN
F 1 "10k" V 7750 6100 50  0000 C BNN
F 2 "Resistors_SMD:R_0603_HandSoldering" H 7850 6100 50  0001 C CNN
F 3 "" H 7850 6100 50  0001 C CNN
F 4 "NCU18XH103F60RB" H 7850 6100 60  0001 C CNN "partno"
	1    7850 6100
	0    1    1    0   
$EndComp
Text Notes 2600 5550 0    60   ~ 0
OPT\nIf V_in Regulate func \nis not desired\nremove R4
$Comp
L R R11
U 1 1 5B089F27
P 7700 5450
F 0 "R11" V 7780 5450 50  0000 C CNN
F 1 "24.9k 1%" V 7700 5450 50  0000 C CNN
F 2 "Resistors_SMD:R_0603_HandSoldering" V 7630 5450 50  0001 C CNN
F 3 "" H 7700 5450 50  0001 C CNN
F 4 "CRCW060324K9FKEA" H 7700 5450 60  0001 C CNN "partno"
	1    7700 5450
	-1   0    0    1   
$EndComp
$Comp
L R R10
U 1 1 5B08A01B
P 7700 5000
F 0 "R10" V 7780 5000 50  0000 C CNN
F 1 "226k 1%" V 7700 5000 50  0000 C CNN
F 2 "Resistors_SMD:R_0603_HandSoldering" V 7630 5000 50  0001 C CNN
F 3 "" H 7700 5000 50  0001 C CNN
F 4 "CRCW0603226KFKEA" H 7700 5000 60  0001 C CNN "partno"
	1    7700 5000
	-1   0    0    1   
$EndComp
Text Notes 9350 4350 0    60   ~ 0
Rcs=0.05/10A (Icsmax)\n     =0.005
Text Notes 7100 1550 0    39   ~ 0
synchronous switch\nFET output
Text Notes 7150 2050 0    39   ~ 0
primary switch\nFET output
Text Notes 4800 1450 0    39   ~ 0
synchronous switch\nFET input
Text Notes 4850 2000 0    39   ~ 0
primary switch \nFET input
$Comp
L C C3
U 1 1 5B0ED12C
P 4250 3550
F 0 "C3" H 4275 3650 50  0000 L CNN
F 1 "10uF" H 4275 3450 50  0000 L CNN
F 2 "Capacitors_SMD:C_0603_HandSoldering" H 4288 3400 50  0001 C CNN
F 3 "" H 4250 3550 50  0001 C CNN
F 4 "GRM188R61A106KE69D" H 4250 3550 60  0001 C CNN "partno"
	1    4250 3550
	1    0    0    -1  
$EndComp
$Comp
L C C15
U 1 1 5B0F073F
P 8400 3300
F 0 "C15" V 8450 3350 50  0000 L CNN
F 1 "OPT_Cith" V 8350 3350 50  0000 L CNN
F 2 "Capacitors_SMD:C_0603_HandSoldering" H 8438 3150 50  0001 C CNN
F 3 "" H 8400 3300 50  0001 C CNN
	1    8400 3300
	0    1    1    0   
$EndComp
$Comp
L C C9
U 1 1 5B0F6B05
P 7000 6000
F 0 "C9" H 7025 6100 50  0000 L CNN
F 1 "OPT_Cvfb" H 6850 5900 50  0000 L CNN
F 2 "Capacitors_SMD:C_0603_HandSoldering" H 7038 5850 50  0001 C CNN
F 3 "" H 7000 6000 50  0001 C CNN
	1    7000 6000
	1    0    0    -1  
$EndComp
$Comp
L GND #PWR014
U 1 1 5B0F6F12
P 7000 6150
F 0 "#PWR014" H 7000 5900 50  0001 C CNN
F 1 "GND" H 7000 6000 50  0000 C CNN
F 2 "" H 7000 6150 50  0001 C CNN
F 3 "" H 7000 6150 50  0001 C CNN
	1    7000 6150
	1    0    0    -1  
$EndComp
Text Label 7000 5650 0    39   ~ 0
FBG
Text Label 7000 5850 0    39   ~ 0
VFB
Text Label 7800 5200 0    39   ~ 0
VFBmin-max
Text Label 7100 5450 0    39   ~ 0
BAT
Text Label 7050 5250 0    39   ~ 0
BGate
Text Label 7050 4950 0    39   ~ 0
CSN
Text Label 7150 4850 0    39   ~ 0
CSP
Text Label 8000 3300 0    39   ~ 0
ITH-Jumper
Text Label 7850 3000 0    39   ~ 0
VC
Text Label 7050 3950 0    39   ~ 0
BST2
Text Label 7700 1600 0    39   ~ 0
TG2
Text Label 7450 1850 0    39   ~ 0
SW2
Text Label 7300 2150 0    39   ~ 0
BG2
Text Label 6900 4600 0    39   ~ 0
I-limit
Text Label 6800 4700 0    39   ~ 0
Cs-out
Text Label 7200 5950 0    39   ~ 0
NTC
Text Label 9150 1350 0    39   ~ 0
V_out
Text Label 5900 2900 0    39   ~ 0
INT-Vcc
Text Label 4250 950  0    39   ~ 0
V_in
Text Label 4900 2050 0    39   ~ 0
BG1
Text Label 4900 1800 0    39   ~ 0
SW1
Text Label 4900 1550 0    39   ~ 0
TG1
Text Label 5000 4050 0    39   ~ 0
BST1
Text Label 4900 2300 0    39   ~ 0
SenseBot
Text Label 4950 1300 0    39   ~ 0
Sensetop
Text Label 5200 5100 0    39   ~ 0
SHDN
Text Label 5400 4900 0    39   ~ 0
RT
Text Label 5200 5200 0    39   ~ 0
VinReg
Text Label 5350 5450 0    39   ~ 0
STAT1
Text Label 5350 5600 0    39   ~ 0
STAT2
Text Label 4950 5450 0    39   ~ 0
RStat1
Text Label 4950 5600 0    39   ~ 0
RStat2
Text Label 5450 5800 0    39   ~ 0
Timer
Text Label 5500 5950 0    39   ~ 0
RNG/SS
Text Label 9150 4950 0    39   ~ 0
FET-S
Text Notes 9350 4750 0    60   ~ 0
C13,R13 values are\nreferenced from\nDC2134A
Text Notes 8200 4650 0    118  ~ 0
***
NoConn ~ 7800 4950
NoConn ~ 7800 4850
NoConn ~ 4950 3950
NoConn ~ 7000 3400
NoConn ~ 7000 3500
NoConn ~ 7150 3850
NoConn ~ 7000 3850
$Comp
L D_Schottky D7
U 1 1 5B12804C
P 7450 3650
F 0 "D7" H 7450 3750 50  0000 C CNN
F 1 "OPT" H 7450 3550 50  0000 C CNN
F 2 "HG_Devices:SOD-123W" H 7450 3650 50  0001 C CNN
F 3 "" H 7450 3650 50  0001 C CNN
F 4 "PMEG10010ELRX" H 7450 3650 60  0001 C CNN "partno"
	1    7450 3650
	0    -1   -1   0   
$EndComp
$Comp
L D_Schottky D4
U 1 1 5B12C22D
P 5650 2000
F 0 "D4" H 5650 2100 50  0000 C CNN
F 1 "Inst 15A" H 5650 1900 50  0000 C CNN
F 2 "HG_Devices:SOD-123W" H 5650 2000 50  0001 C CNN
F 3 "" H 5650 2000 50  0001 C CNN
F 4 "PMEG10010ELRX" H 5650 2000 60  0001 C CNN "partno"
	1    5650 2000
	0    1    1    0   
$EndComp
$Comp
L Q_NMOS_8 Q2
U 1 1 5B134470
P 5300 1550
F 0 "Q2" H 5500 1600 50  0000 L CNN
F 1 "Q_NMOS_8" H 5500 1500 50  0000 L CNN
F 2 "HG_Devices:PowerPAK_SO-8" H 5500 1650 50  0001 C CNN
F 3 "" H 5300 1550 50  0001 C CNN
F 4 "SIR186DP-T1-RE3" H 5300 1550 60  0001 C CNN "partno"
	1    5300 1550
	1    0    0    -1  
$EndComp
$Comp
L Q_NMOS_8 Q1
U 1 1 5B135AC3
P 5250 2050
F 0 "Q1" H 5450 2100 50  0000 L CNN
F 1 "Q_NMOS_8" H 5450 1900 50  0000 L CNN
F 2 "HG_Devices:PowerPAK_SO-8" H 5450 2150 50  0001 C CNN
F 3 "" H 5250 2050 50  0001 C CNN
F 4 "SIR186DP-T1-RE3" H 5250 2050 60  0001 C CNN "partno"
	1    5250 2050
	1    0    0    -1  
$EndComp
$Comp
L Q_NMOS_8 Q3
U 1 1 5B135B4C
P 7050 1600
F 0 "Q3" H 7250 1650 50  0000 L CNN
F 1 "Q_NMOS_8" H 7200 1750 50  0000 L CNN
F 2 "HG_Devices:PowerPAK_SO-8" H 7250 1700 50  0001 C CNN
F 3 "" H 7050 1600 50  0001 C CNN
F 4 "SIR186DP-T1-RE3" H 7050 1600 60  0001 C CNN "partno"
	1    7050 1600
	-1   0    0    -1  
$EndComp
$Comp
L Q_NMOS_8 Q4
U 1 1 5B135D90
P 7100 2100
F 0 "Q4" H 7300 2150 50  0000 L CNN
F 1 "Q_NMOS_8" H 7300 2050 50  0000 L CNN
F 2 "HG_Devices:PowerPAK_SO-8" H 7300 2200 50  0001 C CNN
F 3 "" H 7100 2100 50  0001 C CNN
F 4 "SIR186DP-T1-RE3" H 7100 2100 60  0001 C CNN "partno"
	1    7100 2100
	-1   0    0    -1  
$EndComp
NoConn ~ 7250 5250
NoConn ~ 7700 5250
$Comp
L Q_PMOS_5 Q5
U 1 1 5B17ADB0
P 9050 5250
F 0 "Q5" H 9250 5300 50  0000 L CNN
F 1 "Q_PMOS_5" H 9250 5200 50  0000 L CNN
F 2 "HG_Devices:PowerPAK_SO-8L" H 9250 5350 50  0001 C CNN
F 3 "" H 9050 5250 50  0001 C CNN
F 4 "SQJ409EP-T1_GE3" H 9050 5250 60  0001 C CNN "partno"
	1    9050 5250
	1    0    0    1   
$EndComp
NoConn ~ 7250 5450
Text GLabel 2850 950  0    60   Input ~ 0
V_IN
Text GLabel 10050 1350 2    60   Input ~ 0
V_OUT
Text GLabel 9500 5450 2    60   Input ~ 0
BATT+
$Comp
L CONN_02X15 J1
U 1 1 5B195707
P 1500 6600
F 0 "J1" H 1500 7400 50  0000 C CNN
F 1 "CONN_02X15" V 1500 6600 50  0000 C CNN
F 2 "HG_Devices:SFC-115-T2-F-D-A" H 1500 5450 50  0001 C CNN
F 3 "" H 1500 5450 50  0001 C CNN
F 4 "SFC-115-T2-F-D-A" H 1500 6600 60  0001 C CNN "partno"
	1    1500 6600
	1    0    0    -1  
$EndComp
$Comp
L CONN_02X15 J2
U 1 1 5B1959B7
P 2650 6650
F 0 "J2" H 2650 7450 50  0000 C CNN
F 1 "CONN_02X15" V 2650 6650 50  0000 C CNN
F 2 "HG_Devices:SFC-115-T2-F-D-A" H 2650 5500 50  0001 C CNN
F 3 "" H 2650 5500 50  0001 C CNN
F 4 "SFC-115-T2-F-D-A" H 2650 6650 60  0001 C CNN "partno"
	1    2650 6650
	1    0    0    -1  
$EndComp
Text GLabel 1100 5900 0    60   Input ~ 0
V_IN
Text GLabel 1100 7300 0    60   Input ~ 0
BATT+
Text GLabel 3100 7350 2    60   Input ~ 0
V_OUT
Text GLabel 8400 3950 2    60   Input ~ 0
V_ITH
Text Notes 8400 4150 0    39   ~ 0
VC compensate\nTest
Text GLabel 7250 6300 2    60   Input ~ 0
NTC
Text Notes 7500 6400 0    39   ~ 0
VC,ITH\ncompensate Test
Text GLabel 6900 4350 2    60   Input ~ 0
V_FBMAX
Text Notes 7400 4350 0    39   ~ 0
VC,ITH \ncompensate Test
$Comp
L R R19
U 1 1 5B1C1C23
P 6250 1800
F 0 "R19" V 6330 1800 50  0000 C CNN
F 1 "2.5m" V 6250 1800 50  0000 C CNN
F 2 "Resistors_SMD:R_2512" V 6180 1800 50  0001 C CNN
F 3 "" H 6250 1800 50  0001 C CNN
F 4 "TLR3A20KR0025FTDG" H 6250 1800 60  0001 C CNN "partno"
	1    6250 1800
	0    1    1    0   
$EndComp
Text Notes 6050 2100 0    39   ~ 0
Shunt R 2W\nVC compensate\nTest
Text GLabel 6050 1550 1    39   Input ~ 0
V_IL+
Text GLabel 6450 1550 1    39   Input ~ 0
V_IL-
Text Label 1850 6700 2    39   ~ 0
PG
Text Label 1900 6800 2    39   ~ 0
STAT1
Text Label 1150 6800 2    39   ~ 0
STAT2
Text Notes 6050 1250 0    39   ~ 0
***Add Voltage\nAmplify Circuit
Text GLabel 3700 6550 0    60   Input ~ 0
V_OUT
Text Notes 4450 7550 0    60   ~ 0
Test Pins
NoConn ~ 4250 1300
NoConn ~ 4550 2550
NoConn ~ 4450 2550
NoConn ~ 4350 2550
NoConn ~ 4250 2550
NoConn ~ 4250 2300
NoConn ~ 4350 2300
NoConn ~ 4450 2300
NoConn ~ 4550 2300
NoConn ~ 4350 3400
NoConn ~ 4450 3400
NoConn ~ 4550 3400
NoConn ~ 4950 3600
NoConn ~ 4950 3500
NoConn ~ 4950 3400
$Comp
L Jumper_NC_Small JP1
U 1 1 5B1FCC79
P 7150 4500
F 0 "JP1" H 7150 4580 50  0000 C CNN
F 1 "0R" H 7150 4450 50  0000 C CNN
F 2 "Resistors_SMD:R_0603_HandSoldering" H 7150 4500 50  0001 C CNN
F 3 "" H 7150 4500 50  0001 C CNN
F 4 "CRCW06030000Z0EB" H 7150 4500 60  0001 C CNN "partno"
	1    7150 4500
	1    0    0    -1  
$EndComp
$Comp
L Jumper_NC_Small JP2
U 1 1 5B1FDCBC
P 7450 6100
F 0 "JP2" H 7450 6180 50  0000 C CNN
F 1 "0R" H 7460 6040 50  0000 C CNN
F 2 "Resistors_SMD:R_0603_HandSoldering" H 7450 6100 50  0001 C CNN
F 3 "" H 7450 6100 50  0001 C CNN
F 4 "CRCW06030000Z0EB" H 7450 6100 60  0001 C CNN "partno"
	1    7450 6100
	1    0    0    -1  
$EndComp
$Comp
L Jumper_NC_Small JP3
U 1 1 5B1FEDE2
P 8000 3750
F 0 "JP3" H 8000 3830 50  0000 C CNN
F 1 "0R" H 8010 3690 50  0000 C CNN
F 2 "Resistors_SMD:R_0603_HandSoldering" H 8000 3750 50  0001 C CNN
F 3 "" H 8000 3750 50  0001 C CNN
F 4 "CRCW06030000Z0EB" H 8000 3750 60  0001 C CNN "partno"
	1    8000 3750
	0    1    1    0   
$EndComp
$Comp
L GNDREF #PWR015
U 1 1 5B208BBF
P 6450 6500
F 0 "#PWR015" H 6450 6250 50  0001 C CNN
F 1 "GNDREF" H 6450 6350 50  0000 C CNN
F 2 "" H 6450 6500 50  0001 C CNN
F 3 "" H 6450 6500 50  0001 C CNN
	1    6450 6500
	1    0    0    -1  
$EndComp
$Comp
L GND #PWR016
U 1 1 5B208C88
P 6200 6500
F 0 "#PWR016" H 6200 6250 50  0001 C CNN
F 1 "GND" H 6200 6350 50  0000 C CNN
F 2 "" H 6200 6500 50  0001 C CNN
F 3 "" H 6200 6500 50  0001 C CNN
	1    6200 6500
	1    0    0    -1  
$EndComp
$Comp
L GNDREF #PWR017
U 1 1 5B20939B
P 5350 3250
F 0 "#PWR017" H 5350 3000 50  0001 C CNN
F 1 "GNDREF" H 5350 3100 50  0000 C CNN
F 2 "" H 5350 3250 50  0001 C CNN
F 3 "" H 5350 3250 50  0001 C CNN
	1    5350 3250
	1    0    0    -1  
$EndComp
$Comp
L GNDREF #PWR018
U 1 1 5B20B140
P 4250 3750
F 0 "#PWR018" H 4250 3500 50  0001 C CNN
F 1 "GNDREF" H 4250 3600 50  0000 C CNN
F 2 "" H 4250 3750 50  0001 C CNN
F 3 "" H 4250 3750 50  0001 C CNN
	1    4250 3750
	1    0    0    -1  
$EndComp
$Comp
L GNDREF #PWR019
U 1 1 5B20D376
P 3250 1300
F 0 "#PWR019" H 3250 1050 50  0001 C CNN
F 1 "GNDREF" H 3250 1150 50  0000 C CNN
F 2 "" H 3250 1300 50  0001 C CNN
F 3 "" H 3250 1300 50  0001 C CNN
	1    3250 1300
	1    0    0    -1  
$EndComp
$Comp
L GNDREF #PWR020
U 1 1 5B20D438
P 2950 1300
F 0 "#PWR020" H 2950 1050 50  0001 C CNN
F 1 "GNDREF" H 2950 1150 50  0000 C CNN
F 2 "" H 2950 1300 50  0001 C CNN
F 3 "" H 2950 1300 50  0001 C CNN
	1    2950 1300
	1    0    0    -1  
$EndComp
$Comp
L GNDREF #PWR021
U 1 1 5B20D4FA
P 9950 1700
F 0 "#PWR021" H 9950 1450 50  0001 C CNN
F 1 "GNDREF" H 9950 1550 50  0000 C CNN
F 2 "" H 9950 1700 50  0001 C CNN
F 3 "" H 9950 1700 50  0001 C CNN
	1    9950 1700
	1    0    0    -1  
$EndComp
Text GLabel 6850 2750 2    60   Input ~ 0
INT_Vcc
Text GLabel 4500 5450 0    60   Input ~ 0
INT_Vcc
$Comp
L GNDREF #PWR022
U 1 1 5B216DD7
P 8400 6100
F 0 "#PWR022" H 8400 5850 50  0001 C CNN
F 1 "GNDREF" H 8400 5950 50  0000 C CNN
F 2 "" H 8400 6100 50  0001 C CNN
F 3 "" H 8400 6100 50  0001 C CNN
	1    8400 6100
	1    0    0    -1  
$EndComp
$Comp
L GNDREF #PWR023
U 1 1 5B217A8E
P 3100 6050
F 0 "#PWR023" H 3100 5800 50  0001 C CNN
F 1 "GNDREF" H 3100 5900 50  0000 C CNN
F 2 "" H 3100 6050 50  0001 C CNN
F 3 "" H 3100 6050 50  0001 C CNN
	1    3100 6050
	1    0    0    -1  
$EndComp
$Comp
L GNDREF #PWR024
U 1 1 5B217B50
P 4150 7100
F 0 "#PWR024" H 4150 6850 50  0001 C CNN
F 1 "GNDREF" H 4150 6950 50  0000 C CNN
F 2 "" H 4150 7100 50  0001 C CNN
F 3 "" H 4150 7100 50  0001 C CNN
	1    4150 7100
	1    0    0    -1  
$EndComp
Connection ~ 4150 7050
Connection ~ 4500 6550
Wire Wire Line
	4500 6550 4400 6550
Wire Wire Line
	3700 6550 3900 6550
Connection ~ 3800 6550
Wire Wire Line
	4500 6650 4400 6650
Wire Wire Line
	4500 6400 4500 6650
Wire Wire Line
	3800 6400 3800 6650
Wire Wire Line
	3800 6650 3900 6650
Connection ~ 4500 6850
Wire Wire Line
	4500 6750 4400 6750
Connection ~ 3800 6850
Wire Wire Line
	3900 6750 3800 6750
Wire Wire Line
	4500 6850 4400 6850
Wire Wire Line
	4150 7050 4150 7100
Wire Wire Line
	3800 7050 4500 7050
Wire Wire Line
	3900 6850 3800 6850
Wire Wire Line
	1750 5750 1750 6600
Wire Wire Line
	1250 5750 1250 6700
Wire Wire Line
	1250 6800 1150 6800
Wire Wire Line
	1750 6800 1900 6800
Wire Wire Line
	1750 6700 1850 6700
Connection ~ 6450 1800
Wire Wire Line
	6450 1800 6450 1550
Wire Wire Line
	6400 1800 6650 1800
Connection ~ 6050 1800
Wire Wire Line
	6050 1800 6050 1550
Wire Wire Line
	6650 1350 10050 1350
Wire Wire Line
	6000 1800 6100 1800
Connection ~ 6900 4500
Wire Wire Line
	6900 4350 6900 4500
Connection ~ 7250 6100
Connection ~ 8000 3950
Wire Wire Line
	8000 3950 8400 3950
Wire Wire Line
	8050 2800 8050 3000
Connection ~ 2350 6950
Wire Wire Line
	2400 6950 2350 6950
Connection ~ 2350 7050
Wire Wire Line
	2350 7050 2400 7050
Connection ~ 2350 7150
Wire Wire Line
	2350 7150 2400 7150
Connection ~ 2350 7250
Wire Wire Line
	2350 7250 2400 7250
Connection ~ 2350 7350
Wire Wire Line
	2350 7350 2400 7350
Connection ~ 2950 7350
Wire Wire Line
	2900 7350 3100 7350
Connection ~ 2950 7250
Wire Wire Line
	2950 7250 2900 7250
Connection ~ 2950 7150
Wire Wire Line
	2950 7150 2900 7150
Connection ~ 2950 7050
Wire Wire Line
	2950 7050 2900 7050
Connection ~ 2950 6950
Wire Wire Line
	2900 6950 2950 6950
Wire Wire Line
	2950 6850 2900 6850
Wire Wire Line
	2950 6850 2950 7450
Wire Wire Line
	2950 7450 2350 7450
Wire Wire Line
	2350 7450 2350 6850
Wire Wire Line
	2350 6850 2400 6850
Wire Wire Line
	1250 7300 1100 7300
Connection ~ 1750 7000
Connection ~ 1750 7100
Connection ~ 1750 7200
Connection ~ 1750 7300
Connection ~ 1250 7300
Wire Wire Line
	1750 6900 1750 7450
Wire Wire Line
	1750 7450 1250 7450
Connection ~ 1250 7200
Connection ~ 1250 7100
Connection ~ 1250 7000
Wire Wire Line
	1250 7450 1250 6900
Wire Wire Line
	1250 5900 1100 5900
Connection ~ 1250 5900
Connection ~ 1750 5900
Wire Wire Line
	1250 5750 1750 5750
Connection ~ 1750 6200
Connection ~ 1750 6100
Connection ~ 1750 6000
Connection ~ 1750 6300
Connection ~ 1750 6400
Connection ~ 1750 6500
Connection ~ 1250 6600
Connection ~ 1250 6500
Connection ~ 1250 6400
Connection ~ 1250 6300
Connection ~ 1250 6200
Connection ~ 1250 6100
Connection ~ 1250 6000
Connection ~ 2950 6050
Wire Wire Line
	2900 6050 3100 6050
Connection ~ 2950 6150
Wire Wire Line
	2950 6150 2900 6150
Connection ~ 2950 6250
Wire Wire Line
	2950 6250 2900 6250
Connection ~ 2950 6350
Wire Wire Line
	2950 6350 2900 6350
Connection ~ 2950 6450
Wire Wire Line
	2950 6450 2900 6450
Connection ~ 2950 6550
Wire Wire Line
	2950 6550 2900 6550
Connection ~ 2950 6650
Wire Wire Line
	2950 6650 2900 6650
Connection ~ 2350 6050
Wire Wire Line
	2950 6750 2900 6750
Wire Wire Line
	2950 5800 2950 6750
Wire Wire Line
	2350 5800 2950 5800
Connection ~ 2350 6650
Wire Wire Line
	2350 6650 2400 6650
Connection ~ 2350 6550
Wire Wire Line
	2350 6550 2400 6550
Connection ~ 2350 6450
Wire Wire Line
	2350 6450 2400 6450
Connection ~ 2350 6350
Wire Wire Line
	2350 6350 2400 6350
Connection ~ 2350 6250
Wire Wire Line
	2350 6250 2400 6250
Connection ~ 2350 6150
Wire Wire Line
	2350 6150 2400 6150
Wire Wire Line
	2350 6050 2400 6050
Wire Wire Line
	2350 5800 2350 6750
Wire Wire Line
	2350 6750 2400 6750
Connection ~ 9950 1350
Connection ~ 2950 950 
Connection ~ 9150 5450
Wire Wire Line
	7450 3500 7450 1850
Wire Wire Line
	6650 1800 6650 1850
Connection ~ 6950 1850
Connection ~ 7000 1850
Wire Wire Line
	6650 1850 7450 1850
Connection ~ 6950 1350
Wire Wire Line
	7700 1600 7700 3850
Wire Wire Line
	7250 1600 7700 1600
Wire Wire Line
	7300 2100 7300 3400
Wire Wire Line
	7000 2550 7000 2350
Wire Wire Line
	5350 2300 5350 2350
Connection ~ 5350 1800
Wire Wire Line
	4450 1800 5700 1800
Wire Wire Line
	4550 2050 5050 2050
Wire Wire Line
	3800 2300 3800 4600
Connection ~ 5350 2300
Wire Wire Line
	3800 2300 5650 2300
Wire Wire Line
	5400 1250 5400 1300
Connection ~ 5400 1300
Wire Wire Line
	5650 2300 5650 2150
Connection ~ 5650 1800
Wire Wire Line
	5650 1850 5650 1800
Wire Wire Line
	5500 2550 7000 2550
Wire Wire Line
	5500 2700 5500 2550
Wire Wire Line
	5250 2700 5500 2700
Wire Wire Line
	5250 2700 5250 2550
Wire Wire Line
	5250 2550 3900 2550
Connection ~ 3850 5200
Connection ~ 8000 3500
Wire Wire Line
	8050 3500 8000 3500
Wire Wire Line
	8000 4250 6800 4250
Wire Wire Line
	6800 4250 6800 4350
Wire Wire Line
	7850 3000 7850 4200
Wire Wire Line
	5500 5950 5500 5900
Wire Wire Line
	5400 5800 5500 5800
Wire Wire Line
	5500 5600 5300 5600
Wire Wire Line
	5300 5450 5500 5450
Wire Wire Line
	5000 5600 4950 5600
Wire Wire Line
	5000 5450 4950 5450
Wire Wire Line
	5300 4900 5500 4900
Wire Wire Line
	6900 4700 6800 4700
Connection ~ 7000 5850
Wire Wire Line
	6800 5850 7700 5850
Connection ~ 8700 3500
Wire Wire Line
	8700 3300 8700 3500
Wire Wire Line
	8550 3300 8700 3300
Wire Wire Line
	8000 3300 8250 3300
Wire Wire Line
	7850 4200 6800 4200
Wire Wire Line
	7800 5200 7800 4500
Connection ~ 9150 4950
Connection ~ 9150 1350
Wire Wire Line
	5500 4150 5400 4150
Wire Wire Line
	7250 4700 7200 4700
Wire Wire Line
	5100 5800 5050 5800
Wire Wire Line
	5000 4900 4950 4900
Connection ~ 5350 3600
Wire Wire Line
	8650 3500 8800 3500
Wire Wire Line
	8050 3000 7850 3000
Wire Wire Line
	8050 2800 8200 2800
Wire Wire Line
	8500 2800 8650 2800
Wire Wire Line
	8650 2800 8650 3000
Wire Wire Line
	8650 3000 8750 3000
Wire Wire Line
	6800 5750 7350 5750
Wire Wire Line
	7700 5750 7650 5750
Connection ~ 8000 5450
Wire Wire Line
	7700 5850 7700 5750
Wire Wire Line
	6800 4950 8400 4950
Wire Wire Line
	7250 5550 6800 5550
Wire Wire Line
	6800 4050 6900 4050
Wire Wire Line
	6800 3500 7450 3500
Connection ~ 7150 3500
Wire Wire Line
	6800 3950 7150 3950
Wire Wire Line
	7000 3950 7000 3300
Connection ~ 7000 3950
Wire Wire Line
	7150 3950 7150 3800
Wire Wire Line
	7150 3800 7450 3800
Connection ~ 7450 3500
Connection ~ 7150 3800
Wire Wire Line
	4350 3950 5500 3950
Connection ~ 4550 5450
Wire Wire Line
	3850 5200 5500 5200
Connection ~ 3600 5100
Connection ~ 3850 4800
Connection ~ 3600 4800
Wire Wire Line
	3900 4300 5500 4300
Wire Wire Line
	3800 4600 5500 4600
Connection ~ 5350 4300
Connection ~ 5350 4600
Wire Wire Line
	4450 3600 5500 3600
Wire Wire Line
	4950 4050 5500 4050
Connection ~ 5350 4050
Wire Wire Line
	7000 2900 7000 3000
Wire Wire Line
	6800 2750 6800 3250
Connection ~ 6800 2900
Connection ~ 5400 2900
Wire Wire Line
	4950 3000 4950 2900
Wire Wire Line
	4950 4050 4950 3300
Wire Wire Line
	9150 4750 9150 5050
Wire Wire Line
	7700 3850 6800 3850
Connection ~ 8050 3000
Connection ~ 8650 3000
Wire Wire Line
	3900 2550 3900 4300
Wire Wire Line
	4550 3500 5500 3500
Wire Wire Line
	4550 2050 4550 3500
Wire Wire Line
	4450 1800 4450 3600
Wire Wire Line
	4350 1550 4350 3950
Connection ~ 5400 1800
Wire Wire Line
	4350 1550 5100 1550
Wire Wire Line
	4250 3400 5500 3400
Wire Wire Line
	4250 950  4250 3400
Connection ~ 4250 950 
Wire Wire Line
	3700 4700 3700 1300
Wire Wire Line
	3500 950  3500 4800
Connection ~ 3500 950 
Connection ~ 3250 950 
Connection ~ 6650 1800
Connection ~ 6400 2550
Wire Wire Line
	6650 1500 6650 1350
Wire Wire Line
	7300 3400 6800 3400
Connection ~ 8100 4950
Wire Wire Line
	6800 4600 7300 4600
Wire Wire Line
	7600 4600 7650 4600
Wire Wire Line
	3600 5100 5500 5100
Wire Wire Line
	3850 4900 3850 4800
Wire Wire Line
	6800 5950 7250 5950
Wire Wire Line
	7250 5950 7250 6300
Wire Wire Line
	8000 5450 8000 5750
Wire Wire Line
	6800 4850 7900 4850
Wire Wire Line
	7700 5150 7700 5300
Wire Wire Line
	7250 5200 7800 5200
Wire Wire Line
	7250 5200 7250 5550
Connection ~ 7700 5200
Wire Wire Line
	7700 5600 7700 5650
Wire Wire Line
	7700 5650 6950 5650
Wire Wire Line
	6950 5650 6950 5750
Connection ~ 6950 5750
Wire Wire Line
	8100 4650 8100 4600
Wire Wire Line
	7900 4850 7900 4300
Wire Wire Line
	7900 4300 8350 4300
Connection ~ 7700 4850
Connection ~ 8100 4300
Wire Wire Line
	8650 4300 9150 4300
Connection ~ 9150 4300
Wire Wire Line
	9150 1350 9150 4450
Wire Wire Line
	3700 1300 5400 1300
Wire Wire Line
	2850 950  5400 950 
Wire Wire Line
	6800 5450 9500 5450
Wire Wire Line
	8700 4950 9150 4950
Connection ~ 8750 4950
Wire Wire Line
	6800 5250 8850 5250
Wire Wire Line
	8050 6100 8400 6100
Wire Wire Line
	6800 4500 7050 4500
Wire Wire Line
	7800 4500 7250 4500
Wire Wire Line
	7550 6100 7650 6100
Wire Wire Line
	7350 6100 7250 6100
Wire Wire Line
	8000 3300 8000 3650
Wire Wire Line
	8000 3850 8000 4250
Wire Wire Line
	6200 6500 6450 6500
Wire Wire Line
	4250 3700 4250 3750
Wire Wire Line
	3250 1300 3250 1250
Wire Wire Line
	2950 1250 2950 1300
Wire Wire Line
	9950 1700 9950 1650
Wire Wire Line
	6850 2750 6800 2750
Wire Wire Line
	4950 2900 7000 2900
Wire Wire Line
	4500 5450 4650 5450
Wire Wire Line
	4550 5450 4550 5600
Wire Wire Line
	4550 5600 4650 5600
$Comp
L GNDREF #PWR025
U 1 1 5B21BCB5
P 6400 2600
F 0 "#PWR025" H 6400 2350 50  0001 C CNN
F 1 "GNDREF" H 6400 2450 50  0000 C CNN
F 2 "" H 6400 2600 50  0001 C CNN
F 3 "" H 6400 2600 50  0001 C CNN
	1    6400 2600
	1    0    0    -1  
$EndComp
Wire Wire Line
	6400 2550 6400 2600
$Comp
L C C20
U 1 1 5B224375
P 4600 4800
F 0 "C20" H 4625 4900 50  0000 L CNN
F 1 "0.47uF" H 4625 4700 50  0000 L CNN
F 2 "Capacitors_SMD:C_0603_HandSoldering" H 4638 4650 50  0001 C CNN
F 3 "" H 4600 4800 50  0001 C CNN
F 4 "GCM188R71E474KA64D" H 4600 4800 60  0001 C CNN "partno"
	1    4600 4800
	1    0    0    -1  
$EndComp
Wire Wire Line
	5500 4800 4750 4800
Wire Wire Line
	4750 4800 4750 4950
Wire Wire Line
	4450 4800 4450 4950
Wire Wire Line
	3500 4800 4450 4800
Wire Wire Line
	4450 4950 4750 4950
Connection ~ 4600 4950
Wire Wire Line
	3700 4700 4450 4700
Wire Wire Line
	4450 4700 4450 4650
Wire Wire Line
	4450 4650 4750 4650
Connection ~ 4600 4650
Wire Wire Line
	4750 4650 4750 4700
Wire Wire Line
	4750 4700 5500 4700
$Comp
L Mechanical_Hole H1
U 1 1 5B20F408
P 1050 3700
F 0 "H1" H 1050 3600 60  0000 C CNN
F 1 "Mechanical_Hole" H 1050 3700 60  0000 C CNN
F 2 "Mounting_Holes:MountingHole_4.3mm_M4" H 1050 3700 60  0001 C CNN
F 3 "" H 1050 3700 60  0001 C CNN
	1    1050 3700
	1    0    0    -1  
$EndComp
$Comp
L Mechanical_Hole H2
U 1 1 5B20FBB1
P 1050 4150
F 0 "H2" H 1050 4050 60  0000 C CNN
F 1 "Mechanical_Hole" H 1050 4150 60  0000 C CNN
F 2 "Mounting_Holes:MountingHole_4.3mm_M4" H 1050 4150 60  0001 C CNN
F 3 "" H 1050 4150 60  0001 C CNN
	1    1050 4150
	1    0    0    -1  
$EndComp
$Comp
L Mechanical_Hole H3
U 1 1 5B20FCA6
P 1050 4600
F 0 "H3" H 1050 4500 60  0000 C CNN
F 1 "Mechanical_Hole" H 1050 4600 60  0000 C CNN
F 2 "Mounting_Holes:MountingHole_4.3mm_M4" H 1050 4600 60  0001 C CNN
F 3 "" H 1050 4600 60  0001 C CNN
	1    1050 4600
	1    0    0    -1  
$EndComp
$Comp
L Mechanical_Hole H4
U 1 1 5B21004B
P 1050 5050
F 0 "H4" H 1050 4950 60  0000 C CNN
F 1 "Mechanical_Hole" H 1050 5050 60  0000 C CNN
F 2 "Mounting_Holes:MountingHole_4.3mm_M4" H 1050 5050 60  0001 C CNN
F 3 "" H 1050 5050 60  0001 C CNN
	1    1050 5050
	1    0    0    -1  
$EndComp
Text Label 6050 1700 0    39   ~ 0
V_IL+
Text Label 8000 4100 0    39   ~ 0
ITH-IC
Text Label 7600 6100 0    39   ~ 0
TH
Text Label 6850 4500 0    39   ~ 0
VFBmax-IC
Connection ~ 8750 5250
Wire Wire Line
	5350 2650 5350 2700
Connection ~ 5350 2700
Wire Wire Line
	5400 2900 5400 2950
Wire Wire Line
	5350 3250 5500 3250
Connection ~ 5400 3250
NoConn ~ 5350 3950
Wire Wire Line
	5350 4000 5350 4050
Wire Wire Line
	5350 3700 5350 3600
Wire Wire Line
	5400 5300 5500 5300
$Comp
L CONN_02X01 J4
U 1 1 5B20FF49
P 5450 6650
F 0 "J4" H 5450 6750 50  0000 C CNN
F 1 "CONN_02X01" H 5450 6550 50  0000 C CNN
F 2 "Pin_Headers:Pin_Header_Straight_1x02_Pitch2.54mm" H 5450 5450 50  0001 C CNN
F 3 "" H 5450 5450 50  0001 C CNN
F 4 "PHSS40G10" H 5450 6650 60  0001 C CNN "partno"
	1    5450 6650
	1    0    0    -1  
$EndComp
$Comp
L CONN_02X01 J5
U 1 1 5B210035
P 5450 6850
F 0 "J5" H 5450 6950 50  0000 C CNN
F 1 "CONN_02X01" H 5450 6750 50  0000 C CNN
F 2 "Pin_Headers:Pin_Header_Straight_1x02_Pitch2.54mm" H 5450 5650 50  0001 C CNN
F 3 "" H 5450 5650 50  0001 C CNN
F 4 "PHSS40G10" H 5450 6850 60  0001 C CNN "partno"
	1    5450 6850
	1    0    0    -1  
$EndComp
$Comp
L CONN_02X01 J6
U 1 1 5B210117
P 5450 7050
F 0 "J6" H 5450 7150 50  0000 C CNN
F 1 "CONN_02X01" H 5450 6950 50  0000 C CNN
F 2 "Pin_Headers:Pin_Header_Straight_1x02_Pitch2.54mm" H 5450 5850 50  0001 C CNN
F 3 "" H 5450 5850 50  0001 C CNN
F 4 "PHSS40G10" H 5450 7050 60  0001 C CNN "partno"
	1    5450 7050
	1    0    0    -1  
$EndComp
$Comp
L CONN_02X01 J7
U 1 1 5B210541
P 5450 7250
F 0 "J7" H 5450 7350 50  0000 C CNN
F 1 "CONN_02X01" H 5450 7150 50  0000 C CNN
F 2 "Pin_Headers:Pin_Header_Straight_1x02_Pitch2.54mm" H 5450 6050 50  0001 C CNN
F 3 "" H 5450 6050 50  0001 C CNN
F 4 "PHSS40G10" H 5450 7250 60  0001 C CNN "partno"
	1    5450 7250
	1    0    0    -1  
$EndComp
Text GLabel 5100 6650 0    60   Input ~ 0
V_FBMAX
Text GLabel 5100 6850 0    60   Input ~ 0
NTC
Text GLabel 5100 7050 0    60   Input ~ 0
V_ITH
Text GLabel 5100 7250 0    39   Input ~ 0
V_IL+
Text GLabel 5800 7250 2    39   Input ~ 0
V_IL-
$Comp
L GND #PWR026
U 1 1 5B210E6F
P 6050 7050
F 0 "#PWR026" H 6050 6800 50  0001 C CNN
F 1 "GND" H 6050 6900 50  0000 C CNN
F 2 "" H 6050 7050 50  0001 C CNN
F 3 "" H 6050 7050 50  0001 C CNN
	1    6050 7050
	1    0    0    -1  
$EndComp
Wire Wire Line
	5100 6650 5200 6650
Wire Wire Line
	5200 6850 5100 6850
Wire Wire Line
	5100 7050 5200 7050
Wire Wire Line
	5200 7250 5100 7250
Wire Wire Line
	5700 7250 5800 7250
Wire Wire Line
	5700 7050 6050 7050
Wire Wire Line
	5750 6650 5750 7050
Wire Wire Line
	5750 6850 5700 6850
Connection ~ 5750 7050
Wire Wire Line
	5750 6650 5700 6650
Connection ~ 5750 6850
$Comp
L CONN_02X04 J3
U 1 1 5B28BC97
P 4150 6700
F 0 "J3" H 4150 6950 50  0000 C CNN
F 1 "CONN_02X04" H 4150 6450 50  0000 C CNN
F 2 "Pin_Headers:Pin_Header_Straight_2x04_Pitch2.54mm" H 4150 5500 50  0001 C CNN
F 3 "" H 4150 5500 50  0001 C CNN
F 4 "PHSS40G10" H 4150 6700 60  0001 C CNN "partno"
	1    4150 6700
	1    0    0    -1  
$EndComp
Text Notes 3850 6350 0    60   ~ 0
Batt_VC_Test
Wire Wire Line
	3800 6400 4500 6400
Wire Wire Line
	3800 6750 3800 7050
Wire Wire Line
	4500 7050 4500 6750
Text Notes 8550 2700 0    60   ~ 0
68pF
$EndSCHEMATC
